[
    {
        "_id": "product-001",
        "name": "The Subtle Art Of Not Giving A F**k",
        "description": "New York's Time Best Selling Book",
        "price": 5000,
        "stocks": 20,
        "isActive": true,
        "sku": "TSAONGAF230227"
    },
    {
        "_id": "product-002",
        "name": "Atomic Habits",
        "description": "New York's Time Best Selling Book",
        "price": 5000,
        "stocks": 10,
        "isActive": true,
        "sku": "AT230227"
    },
    {
        "_id": "product-003",
        "name": "5 Love Languages",
        "description": "New York's Time Best Selling Book",
        "price": 5000,
        "stocks": 5,
        "isActive": true,
        "sku": "5LL230227"
    }
]