[
  {
    "_id": "course100",
    "name": "Full-Stack Web Dev in JavaScript",
    "description": "Learn how to do web development using JavaScript",
    "price": 10000,
    "slots": 20,
    "isActive": true,
    "dateTimeCreated": "2022-12-12-1042AM",
    "enrolleess": ["ABC123"]
  },
  {
    "_id": "course103",
    "name": "Introduction to HTML",
    "description": "Learn the basics and how to code",
    "price": 3000,
    "slots": 20,
    "isActive": false,
    "dateTimeCreated": "2020-01-05-1050AM",
    "enrolleess": []
  },
  {
    "_id": "course123",
    "name": "Introduction to CSS",
    "description": "Learn the basics and design your website",
    "price": 5000,
    "slots": 10,
    "isActive": true,
    "dateTimeCreated": "2020-01-05-1051AM",
    "enrolleess": ["ABC123", "GHI789"]
  }
]
