[
  {
    "_id": "crsbk-0001",
    "userId": "ABC123",
    "courseId": "course100",
    "isPaid": true,
    "paymentMethod": "cash",
    "dateTimeEnrolled": "2023-02-27-1100AM"
  },
  {
    "_id": "crsbk-0002",
    "userId": "DEF456",
    "courseId": "course101",
    "isPaid": true,
    "paymentMethod": "gcash",
    "dateTimeEnrolled": "2023-02-27-300PM"
  },
  {
    "_id": "crsbk-0003",
    "userId": "GHI789",
    "courseId": "course102",
    "isPaid": true,
    "paymentMethod": "paypal",
    "dateTimeEnrolled": "2023-02-27-500PM"
  }
]
